…
  mutate(group = factor(if_else(ID > 10000, "kontrol", "intervention"))) %>%
  mutate(gender = factor(if_else(
    ID %in% 1000:1999 |
      ID %in% 10000:11999, "dreng", "pige"
  )))
Eksamen2020 <- Eksamen2020 %>%
  mutate(Level = factor(
    Level,
    c(1, 2, 3, 4, 5),
    c("beginner", "novice", "intermediate", "advanced", "expert")
  ))
Eksamen2020[6:12]
```

    ## # A tibble: 80 x 7
    ##      Age Level       TeknikBaseline TeknikFollowup TraningsPas group      gender
    ##    <dbl> <fct>                <dbl>          <dbl>       <dbl> <fct>      <fct> 
    ##  1    26 advanced                 3              5          24 intervent~ dreng 
    ##  2    24 advanced                 4              5          22 intervent~ dreng 
    ##  3    24 novice                   2              4          22 intervent~ dreng 
    ##  4    25 novice                   2              3          22 intervent~ dreng 
    ##  5    26 advanced                 5              5          21 intervent~ dreng 
    ##  6    21 novice                   1              2          23 intervent~ dreng 
    ##  7    24 advanced                 5              5          19 intervent~ dreng 
    ##  8    28 intermedia~              4              4          21 intervent~ dreng 
    ##  9    25 advanced                 4              4          22 intervent~ dreng 
    ## 10    22 intermedia~              2              2          23 intervent~ dreng 
    ## # ... with 70 more rows
…
